\relax 
\providecommand*{\memsetcounter}[2]{}
\catcode`"\active
\select@language{brazilian}
\@writefile{toc}{\select@language{brazilian}}
\@writefile{lof}{\select@language{brazilian}}
\@writefile{lot}{\select@language{brazilian}}
\@input{INPUTS.aux}
\newlabel{LastPage}{{}{15}}
\xdef\lastpage@lastpage{15}
\gdef\lastpage@lastpageHy{}
\memsetcounter{lastsheet}{16}
\memsetcounter{lastpage}{16}
